2 Methylation trends in EB days 0-6 | DNA methyltransferases 3A and 3B target specific sequences during mouse gastrulation
…
##  [1] "d0_3a"   "d1_3a"   "d2_3a"   "d3_3a"   "d4_3a"   "d0_3b"   "d1_3b"  
##  [8] "d2_3b"   "d3_3b"   "d4_3b"   "d0_wt"   "d1_wt"   "d2_wt"   "d3_wt"  
## [15] "d4_wt"   "d0_tko"  "d1_tko"  "d2_tko"  "d3_tko"  "d4_tko"  "d0S_3a" 
## [22] "d0S_3b"  "d0S_wt"  "d0S_tko"

K <- 60
km <- tglkmeans::TGL_kmeans(m, K, id_column=FALSE, seed=19) %cache_rds% here("output/meth_capt_clust.rds")

enframe(km$size[c(1, 9, 19, 24, 30, 32, 40, 44, 53, 60)])

## # A tibble: 10 x 2
##   name value
## 1    1  1179
## 2    9  5459
## 3   19  2023
## 4   24  1573
## 5   30  1295
## 6   32  2810
## # ... with 4 more rows
…
