…
```r
K <- 60
km <- tglkmeans::TGL_kmeans(m, K, id_column=FALSE, seed=19) %cache_rds% here("output/meth_capt_clust.rds")
```


```r
enframe(km$size[c(1, 9, 19, 24, 30, 32, 40, 44, 53, 60)])
```

```
## # A tibble: 10 x 2
##   name value
## 1    1  1179
## 2    9  5459
## 3   19  2023
## 4   24  1573
## 5   30  1295
## 6   32  2810
## # ... with 4 more rows
```
…
