…
```
## Joining, by = "cell_id"
```

> Note that for cell cycle we use specific experiments with similar cell cycle profile


```r
sc_stats %>% count(day, line, sort) 
```

```
## # A tibble: 15 x 4
##   day line         sort    n
## 1  d5 ko3a CXCR4-EPCAM+  372
## 2  d5 ko3a CXCR4+EPCAM+  372
## 3  d5 ko3a        index 1851
## 4  d5 ko3b CXCR4-EPCAM+  372
## 5  d5 ko3b CXCR4+EPCAM+  372
## 6  d5 ko3b        index 1837
## # ... with 9 more rows
```
…
