…
```
## Joining, by = "cell_id"
```

### EB


```r
df_cell_cycle_annot %>% filter(line != "mouse", day %in% c("d5", "d6")) %>% count(day, experiment)
```

```
## # A tibble: 7 x 3
##   day  experiment    n
## 1  d5 experiment3  659
## 2  d5 experiment4 1672
## 3  d5 experiment6 1021
## 4  d5 experiment8  362
## 5  d6 experiment2  746
## 6  d6 experiment3  645
## # ... with 1 more rows
```
…
p_ab_diff
```

<img src="Single-cell-methylation_files/figure-html/unnamed-chunk-31-1.png" width="672" />


```r
df_diff %>% count(tor, ord_grp, germ_layer) %>% arrange(germ_layer)
```

```
## # A tibble: 18 x 4
##     tor ord_grp germ_layer   n
## 1 early S-start       ecto 198
## 2 early   S-mid       ecto 199
## 3 early   S-end       ecto 198
## 4  late S-start       ecto 198
## 5  late   S-mid       ecto 199
## 6  late   S-end       ecto 198
## # ... with 12 more rows
```
…
